softdev\dbproject\dao\Dao.class
softdev\dbproject\DeleteDB.class
softdev\dbproject\model\User.class
softdev\dbproject\SelectDB.class
softdev\dbproject\InsertDB.class
softdev\dbproject\UpdateDB.class
softdev\dbproject\dao\UserDao.class
softdev\dbproject\service\UserService.class
softdev\dbproject\ConnectDB.class
softdev\dbproject\TestUserDao.class
softdev\dbproject\TestUserService.class
softdev\dbproject\database\Database.class
